<svg width="24" height="24" viewBox="0 0 24 24" fill="none" xmlns="http://www.w3.org/2000/svg">
<path fill-rule="evenodd" clip-rule="evenodd" d="M4 18H8C8.55 18 9 17.55 9 17C9 16.45 8.55 16 8 16H4C3.45 16 3 16.45 3 17C3 17.55 3.45 18 4 18ZM3 7C3 7.55 3.45 8 4 8H20C20.55 8 21 7.55 21 7C21 6.45 20.55 6 20 6H4C3.45 6 3 6.45 3 7ZM4 13H14C14.55 13 15 12.55 15 12C15 11.45 14.55 11 14 11H4C3.45 11 3 11.45 3 12C3 12.55 3.45 13 4 13Z" fill="#00642C"/>
</svg>
