<svg width="15" height="8" viewBox="0 0 15 8" fill="none" xmlns="http://www.w3.org/2000/svg">
<path d="M7.33674 6.62068L0.963246 0.167324C0.742875 -0.0557747 0.385599 -0.0557747 0.165228 0.167324C-0.0550765 0.39049 -0.0550765 0.752209 0.165228 0.975341L6.93773 7.8327C7.1581 8.05577 7.51537 8.05577 7.73575 7.8327L14.5082 0.975341C14.7248 0.748325 14.7186 0.386571 14.4944 0.167323C14.2756 -0.0465342 13.9289 -0.0465342 13.7102 0.167323L7.33674 6.62068Z" fill="#00642C"/>
</svg>
