<svg width="20" height="14" viewBox="0 0 20 14" fill="none" xmlns="http://www.w3.org/2000/svg">
<path fill-rule="evenodd" clip-rule="evenodd" d="M0.0549997 6.767C2.289 2.257 5.605 0 10 0C14.396 0 17.71 2.256 19.945 6.767C19.9809 6.83941 19.9997 6.91916 19.9997 7C19.9997 7.08084 19.9809 7.16059 19.945 7.233C17.711 11.743 14.395 14 10 14C5.604 14 2.29 11.744 0.0549997 7.233C0.0190525 7.16059 0.000347137 7.08084 0.000347137 7C0.000347137 6.91916 0.0190525 6.83941 0.0549997 6.767ZM10 11.307C12.469 11.307 14.47 9.379 14.47 7C14.47 4.621 12.469 2.692 10 2.692C7.531 2.692 5.53 4.622 5.53 7C5.53 9.379 7.531 11.308 10 11.308V11.307ZM10 9.154C8.766 9.154 7.765 8.19 7.765 7C7.765 5.81 8.765 4.846 10 4.846C11.234 4.846 12.235 5.81 12.235 7C12.235 8.19 11.235 9.154 10 9.154Z" fill="#BDBDBD"/>
</svg>
