<svg width="18" height="12" viewBox="0 0 18 12" fill="none" xmlns="http://www.w3.org/2000/svg">
<path d="M3 6C3 6.55228 3.44772 7 4 7H14C14.5523 7 15 6.55228 15 6C15 5.44772 14.5523 5 14 5H4C3.44772 5 3 5.44772 3 6ZM1 0C0.447716 0 0 0.447715 0 1C0 1.55228 0.447715 2 1 2H17C17.5523 2 18 1.55228 18 1C18 0.447715 17.5523 0 17 0H1ZM7 11C7 11.5523 7.44772 12 8 12H10C10.5523 12 11 11.5523 11 11C11 10.4477 10.5523 10 10 10H8C7.44772 10 7 10.4477 7 11Z" fill="#00642C"/>
</svg>
