<svg width="12" height="12" viewBox="0 0 12 12" fill="none" xmlns="http://www.w3.org/2000/svg">
<path fill-rule="evenodd" clip-rule="evenodd" d="M6 3.8183C4.79455 3.8183 3.81818 4.79467 3.81818 6.00012C3.81818 7.20558 4.79455 8.18194 6 8.18194C7.20545 8.18194 8.18182 7.20558 8.18182 6.00012C8.18182 4.79467 7.20545 3.8183 6 3.8183ZM10.8764 5.45467C10.6255 3.18012 8.82 1.37467 6.54545 1.12376V0.545577C6.54545 0.245577 6.3 0.00012207 6 0.00012207C5.7 0.00012207 5.45455 0.245577 5.45455 0.545577V1.12376C3.18 1.37467 1.37455 3.18012 1.12364 5.45467H0.545455C0.245455 5.45467 0 5.70012 0 6.00012C0 6.30012 0.245455 6.54558 0.545455 6.54558H1.12364C1.37455 8.82012 3.18 10.6256 5.45455 10.8765V11.4547C5.45455 11.7547 5.7 12.0001 6 12.0001C6.3 12.0001 6.54545 11.7547 6.54545 11.4547V10.8765C8.82 10.6256 10.6255 8.82012 10.8764 6.54558H11.4545C11.7545 6.54558 12 6.30012 12 6.00012C12 5.70012 11.7545 5.45467 11.4545 5.45467H10.8764ZM6 9.8183C3.88909 9.8183 2.18182 8.11103 2.18182 6.00012C2.18182 3.88921 3.88909 2.18194 6 2.18194C8.11091 2.18194 9.81818 3.88921 9.81818 6.00012C9.81818 8.11103 8.11091 9.8183 6 9.8183Z" fill="#00642C"/>
</svg>
