<svg width="12" height="16" viewBox="0 0 12 16" fill="none" xmlns="http://www.w3.org/2000/svg">
<path d="M5.99684 0C7.20124 0 8.29421 0.492495 9.09142 1.28963C9.89038 2.08851 10.3922 3.19334 10.4116 4.41483L10.4122 4.48783V5.98554H10.855C11.1659 5.98554 11.4482 6.11236 11.6547 6.31744C11.8623 6.52352 11.9931 6.80856 11.9998 7.12295L12 7.14128V14.8402C12 15.1565 11.8748 15.4436 11.6719 15.6531C11.4686 15.863 11.1874 15.9949 10.8765 16H10.8587H1.1418C0.830417 16 0.547715 15.8728 0.341511 15.6667C0.134832 15.4602 0.00506136 15.1746 0.000144531 14.8587L0 14.8407V7.14217C0 6.82586 0.125243 6.5387 0.32807 6.32923C0.531364 6.11929 0.812564 5.98747 1.12351 5.98248L1.14129 5.98233H1.58144V4.48514C1.58144 3.24933 2.07665 2.12767 2.87653 1.31516C3.67587 0.503191 4.77943 0 5.99684 0ZM10.4533 7.55341H1.54349V14.4321H10.4533V7.55341ZM5.99684 9.45141C6.20819 9.45141 6.39915 9.53699 6.53825 9.67589C6.67784 9.81528 6.76527 10.0085 6.76849 10.2231L6.76858 11.9253C6.76858 12.1424 6.68242 12.3383 6.54294 12.48C6.40346 12.6217 6.21058 12.7092 5.99684 12.7092C5.78592 12.7092 5.59525 12.6232 5.45619 12.4843C5.31604 12.3444 5.2284 12.1507 5.22518 11.9374L5.22509 10.2353C5.22509 10.0182 5.31125 9.8223 5.45074 9.68061C5.59022 9.53893 5.78309 9.45141 5.99684 9.45141ZM5.99684 1.56787C5.21323 1.56787 4.50227 1.88781 3.98376 2.40589C3.46448 2.92473 3.13817 3.6423 3.12533 4.4364L3.12493 4.48566V5.97912H8.86874V4.48514C8.86874 3.68043 8.54683 2.95113 8.02691 2.423C7.50699 1.89487 6.78903 1.56787 5.99684 1.56787Z" fill="#00642C"/>
</svg>
