<svg width="120" height="14" viewBox="0 0 120 14" fill="none" xmlns="http://www.w3.org/2000/svg">
<g clip-path="url(#clip0)">
<path d="M1.19685 0.175751C0.730709 0.388224 0.314961 0.825669 0.138583 1.28811C0.0503937 1.52558 0 3.7503 0 7.82479V13.999H2.89764V10.1245H6.75276L7.76063 12.0618L8.75591 13.999H10.4315C11.3386 13.999 12.0945 13.9615 12.0945 13.924C12.0945 13.874 11.578 12.8492 10.9354 11.6493L9.78898 9.44959L10.0913 9.26212C11.7921 8.14975 12.548 5.96253 12.0945 3.46284C11.8047 1.93803 11.0614 0.863165 9.91496 0.363227C9.27244 0.0757627 9.15905 0.0632648 5.41732 0.0382681C2.3937 0.0132713 1.49921 0.0382681 1.19685 0.175751ZM8.50394 3.0004C8.70551 3.07539 8.90709 3.30036 9.02047 3.58782C9.25984 4.15025 9.28504 5.58757 9.07087 6.01252C8.52913 7.04989 7.86142 7.24987 5.01417 7.24987H2.89764V2.87541H5.53071C6.97953 2.87541 8.31496 2.92541 8.50394 3.0004ZM16.378 0.113258C15.1307 0.488212 14.2362 1.3756 13.8583 2.58795C13.5559 3.56283 13.2283 5.86254 13.2283 6.9749C13.2283 8.04977 13.5307 10.237 13.7953 11.1244C14.2614 12.6617 15.0551 13.4491 16.5165 13.824C17.1465 13.9865 17.8142 14.0115 19.9559 13.974C22.4126 13.9365 22.6646 13.899 23.2819 13.6366C25.0583 12.8492 25.8268 10.8494 25.8268 6.9999C25.8142 2.9504 25.0205 0.950654 23.1433 0.26324C22.4756 0.0257692 22.1858 0.000772476 19.5528 0.0132713C17.978 0.0132713 16.5543 0.0632648 16.378 0.113258ZM22.2362 3.16288C23.0803 4.31273 23.0677 9.97453 22.211 10.8119C21.9591 11.0744 17.1087 11.0869 16.8945 10.8369C16.3024 10.1245 16.0882 6.01252 16.5417 4.08776C16.7307 3.32536 16.8315 3.08789 17.0457 3.0004C17.1968 2.93791 18.3937 2.90041 19.6913 2.91291C21.8205 2.93791 22.085 2.9629 22.2362 3.16288ZM28.548 0.275738C28.2709 0.438218 27.9307 0.763177 27.7921 1.00065C27.5402 1.42559 27.5276 1.65057 27.4898 6.64994C27.4646 10.137 27.5024 12.0243 27.5905 12.3742C27.8047 13.1491 28.3591 13.7116 29.115 13.8615C29.8961 14.0365 35.452 14.0365 36.4472 13.874C38.3874 13.5616 39.3827 12.4367 39.5213 10.3745C39.6094 9.21212 39.4205 8.34973 38.9291 7.57483L38.5638 7.0124L39.0299 6.11251C39.4835 5.25012 39.4961 5.16263 39.4961 3.95028C39.4961 2.91291 39.4331 2.57545 39.2063 2.06301C38.8409 1.27561 38.4 0.813171 37.6063 0.400723L36.9764 0.0632648L33.0079 0.0257692C29.0772 0.000772476 29.0394 0.000772476 28.548 0.275738ZM36.3465 3.02539C36.5228 3.20037 36.6362 4.03777 36.5228 4.42522C36.4598 4.65019 36.2583 4.96265 36.0819 5.13763C35.7669 5.43759 35.7165 5.43759 33.1213 5.47509L30.4882 5.51258V2.86292L33.3732 2.90041C34.9606 2.92541 36.2961 2.9754 36.3465 3.02539ZM35.7921 8.5997C36.2961 8.79967 36.5732 9.33711 36.5606 10.0495C36.548 10.4995 36.485 10.7244 36.3339 10.8369C36.1701 10.9619 35.3764 10.9994 33.2976 10.9994H30.4882V8.34973L32.9827 8.39972C34.3433 8.43722 35.6157 8.52471 35.7921 8.5997ZM43.7417 0.26324C42.5197 0.73818 41.9024 1.58807 41.4236 3.46284C41.1842 4.41272 41.1465 4.91266 41.1465 6.9999C41.1465 9.27461 41.1716 9.52458 41.4866 10.6869C41.8772 12.0993 42.2425 12.7117 42.9732 13.2491C43.8803 13.8865 44.1575 13.9365 47.3701 13.9365C50.5827 13.9365 50.8598 13.8865 51.7669 13.2491C52.4976 12.7117 52.863 12.0993 53.2535 10.6869C53.5685 9.52458 53.5937 9.27461 53.5937 6.9999C53.5937 4.91266 53.5559 4.41272 53.3165 3.46284C52.8378 1.56308 52.2205 0.725682 50.9606 0.26324C50.3181 0.0257692 50.0031 0.000772476 47.3323 0.0132713C44.6992 0.0132713 44.3465 0.0382681 43.7417 0.26324ZM49.8142 3.0004C50.1543 3.12538 50.3055 3.51283 50.5449 4.92516C50.8472 6.66244 50.5827 9.93703 50.0787 10.6994C49.8898 10.9994 49.8772 10.9994 47.3701 10.9994C44.422 10.9994 44.5984 11.0869 44.2709 9.42459C43.8047 7.12488 44.1827 3.28786 44.8882 3.0004C45.2661 2.85042 49.411 2.85042 49.8142 3.0004Z" fill="#276EB8"/>
<path d="M55.9496 0.388391L55.5591 0.775844V13.1493L55.9244 13.5118C56.252 13.8242 56.3906 13.8742 57.0331 13.8742C57.6504 13.8742 57.8268 13.8242 58.0536 13.5867C58.4945 13.1243 58.5827 12.5869 58.5827 10.4121V8.37489H60.4347L61.367 9.17479C63.2315 10.7621 63.874 11.612 63.874 12.4619C63.874 12.9368 63.937 13.0868 64.3024 13.4493C64.6803 13.8242 64.8063 13.8742 65.3733 13.8742C65.9024 13.8742 66.0788 13.8117 66.4189 13.5118C66.8221 13.1618 66.8347 13.1118 66.8221 12.1994C66.8095 11.412 66.7465 11.1246 66.4189 10.4621C65.978 9.58724 64.6929 8.02494 63.8866 7.38752L63.3575 6.97507L64.1764 6.23766C65.1591 5.33777 66.0662 4.17542 66.4945 3.26303C66.7339 2.7381 66.8095 2.36315 66.8221 1.66323C66.8347 0.763346 66.8221 0.713351 66.4189 0.363395C66.0536 0.0384359 65.915 0.000940323 65.2095 0.000940323C64.4788 0.000940323 64.3654 0.0384359 64.1386 0.325899C63.9622 0.550872 63.874 0.838336 63.874 1.21329C63.874 1.51325 63.7985 1.9382 63.6977 2.16317C63.4835 2.68811 62.526 3.72548 61.367 4.71285L60.4347 5.50025H58.5827V3.46301C58.5827 2.35065 58.5197 1.22579 58.4567 0.975819C58.2677 0.300902 57.8142 0.000940323 56.9953 0.000940323C56.4284 0.000940323 56.2772 0.0509338 55.9496 0.388391ZM71.9874 0.175919C70.2866 0.713351 69.3544 1.9132 68.6992 4.3629C68.3969 5.46276 68.3717 5.83771 68.3213 9.01231C68.2457 12.7618 68.2961 13.1743 68.8756 13.6242C69.2914 13.9492 70.3622 13.9617 70.7528 13.6492C71.2063 13.2868 71.3071 12.9368 71.3071 11.637V10.3746H77.8583V11.762C77.8583 13.1243 77.8583 13.1493 78.2236 13.5118C78.5512 13.8242 78.6898 13.8742 79.3071 13.8742C79.9496 13.8742 80.063 13.8367 80.4032 13.4743L80.7685 13.0743L80.7307 9.07481C80.6803 5.37527 80.6551 4.98782 80.4032 4.15042C79.7985 2.17567 78.9166 0.938323 77.7323 0.388391C77.0772 0.0884295 76.9008 0.0634327 74.7717 0.0384359C73.1591 0.0134382 72.3528 0.0509338 71.9874 0.175919ZM76.3339 3.01306C77.0268 3.25054 77.6189 4.76285 77.7827 6.65011L77.8457 7.5H71.2693L71.3575 6.50013C71.5087 4.73785 72.2016 3.08806 72.8441 2.96307C73.4614 2.85058 75.9559 2.88808 76.3339 3.01306ZM84.7244 0.175919C83.4898 0.56337 82.7969 1.1633 82.3685 2.25066C82.1544 2.80059 82.0914 3.20054 82.0914 4.18792C82.0914 6.18767 82.6961 7.32503 84.1197 8.01244C84.6866 8.28741 84.9134 8.3124 87.3953 8.37489C89.9654 8.43739 90.0788 8.44989 90.3559 8.72485C90.7213 9.08731 90.7591 10.1497 90.4189 10.6621L90.2048 10.9996H86.8158C83.6158 10.9996 83.4142 11.0121 83.1118 11.2495C82.4063 11.7995 82.3811 12.9993 83.0488 13.5617L83.4268 13.8742H87.0929C89.1339 13.8742 90.9733 13.8117 91.2252 13.7492C91.9181 13.5617 92.6614 12.8368 93.1276 11.8995C93.5181 11.1121 93.5433 10.9996 93.5433 9.68723C93.5433 8.46238 93.5055 8.23741 93.2158 7.62499C92.8 6.7501 92.2331 6.10018 91.6158 5.80022C91.2126 5.60024 90.7465 5.55025 88.2772 5.50025C84.9386 5.42526 85.0394 5.47526 85.0394 4.18792C85.0394 2.88808 84.8504 2.95057 88.8693 2.87558L92.3465 2.81309L92.6866 2.47563C92.989 2.17567 93.0268 2.02569 93.0772 1.07581L93.1402 0.000940323L89.1843 0.0134382C86.3622 0.0134382 85.0898 0.0634327 84.7244 0.175919ZM97.1969 0.175919C96.9197 0.263408 96.5292 0.425887 96.315 0.525874C94.6898 1.37577 94.0095 4.22541 94.9418 6.25016C95.3323 7.10005 95.7607 7.55 96.567 7.97494C97.1717 8.2999 97.2725 8.3124 99.7166 8.3499C101.102 8.3624 102.387 8.44989 102.576 8.51238C103.017 8.68736 103.232 9.32478 103.118 10.0747C102.98 11.0246 103.08 10.9996 99.263 10.9996H95.8489L95.4835 11.362C95.1685 11.687 95.1181 11.8245 95.1181 12.4369C95.1181 13.0493 95.1685 13.1868 95.4835 13.5118L95.8489 13.8742H99.6536C103.887 13.8742 103.987 13.8617 104.869 13.0243C105.638 12.2869 105.991 11.412 106.054 9.97469C106.129 8.3124 105.814 7.33752 104.882 6.42514C104.466 6.01269 104.05 5.72523 103.735 5.63774C103.458 5.56275 102.198 5.50025 100.901 5.50025C99.6032 5.50025 98.3811 5.46276 98.167 5.42526C97.7134 5.33777 97.5118 4.95032 97.5118 4.18792C97.5118 3.42551 97.7134 3.03806 98.167 2.95057C98.3811 2.91308 99.9055 2.87558 101.569 2.87558C105.487 2.87558 105.575 2.82559 105.575 0.938323V0.000940323L101.644 0.0134382C98.8347 0.0134382 97.5496 0.0634327 97.1969 0.175919ZM111.005 0.250909C110.639 0.375894 110.135 0.638361 109.896 0.825837C108.888 1.58824 107.981 3.58799 107.729 5.62524C107.54 7.05006 107.553 12.5994 107.729 13.1118C107.906 13.5992 108.409 13.8742 109.153 13.8742C109.606 13.8742 109.808 13.7992 110.135 13.5118L110.551 13.1493L110.589 11.762L110.639 10.3746H117.014L117.065 11.762L117.102 13.1493L117.518 13.5118C117.846 13.8117 118.035 13.8742 118.551 13.8742C119.068 13.8742 119.257 13.8117 119.584 13.5118L120 13.1493L119.987 9.22479C119.975 5.63774 119.962 5.23779 119.71 4.3379C119.143 2.27566 118.299 1.02581 117.077 0.425887C116.359 0.0759306 116.296 0.0634327 114.016 0.0384359C111.962 0.000940323 111.609 0.0259371 111.005 0.250909ZM116.044 3.37552C116.548 3.96295 116.926 5.21279 117.002 6.46263L117.077 7.5H110.614V6.7376C110.614 5.1503 111.32 3.30053 112.025 3.00057C112.189 2.93807 113.071 2.90058 114.003 2.91308L115.679 2.93807L116.044 3.37552Z" fill="#D61E2F"/>
</g>
<defs>
<clipPath id="clip0">
<rect width="120" height="14" fill="white"/>
</clipPath>
</defs>
</svg>
