<svg width="100" height="100" viewBox="0 0 100 100" fill="none" xmlns="http://www.w3.org/2000/svg">
<circle cx="48.5" cy="48.5" r="37.5" stroke="#00642C" stroke-width="2"/>
<path fill-rule="evenodd" clip-rule="evenodd" d="M37.4088 24C44.2506 24 49.8175 29.5669 49.8175 36.4088C49.8175 43.2506 44.2506 48.8175 37.4088 48.8175C30.5669 48.8175 25 43.2506 25 36.4088C25 29.5669 30.5669 24 37.4088 24ZM37.4088 25.5511C31.4215 25.5511 26.5511 30.4215 26.5511 36.4088C26.5511 42.3944 31.4215 47.2664 37.4088 47.2664C37.6999 47.2664 37.9884 47.2549 38.2739 47.2323C33.6291 45.5386 30.4288 41.3275 30.4288 36.4088C30.4288 31.4899 33.6291 27.2789 38.2738 25.5851C37.9885 25.5626 37.6999 25.5511 37.4088 25.5511ZM41.62 26.4012L41.4538 26.4193C40.3895 26.5418 39.3781 26.8036 38.4398 27.1841C42.2306 27.7909 45.1642 31.6957 45.1642 36.4088C45.1642 41.1214 42.2312 45.0259 38.4409 45.6333C39.4275 46.0333 40.4949 46.3022 41.6197 46.4161C45.5209 44.7679 48.2664 40.9021 48.2664 36.4088C48.2664 31.9143 45.521 28.0492 41.62 26.4012ZM37.4088 28.6533C36.6887 28.6533 35.9835 28.8102 35.3109 29.1196C33.2463 30.9546 31.9799 33.5436 31.9799 36.4088C31.9799 39.2748 33.247 41.864 35.3128 43.699C35.9849 44.0077 36.6894 44.1642 37.4088 44.1642C40.8305 44.1642 43.6131 40.6851 43.6131 36.4088C43.6131 32.1324 40.8305 28.6533 37.4088 28.6533ZM71.6195 40.6104C69.4394 38.4305 66.541 37.2299 63.458 37.2299C60.3751 37.2299 57.4766 38.4305 55.2966 40.6104C53.1166 42.7905 51.9161 45.6889 51.9161 48.7719C51.9161 51.8548 53.1166 54.7533 55.2966 56.9333C57.4766 59.1133 60.3751 60.3138 63.458 60.3138C65.5686 60.3138 67.6338 59.7386 69.4302 58.6504C69.8562 58.3924 69.9923 57.838 69.7342 57.412C69.4762 56.986 68.9218 56.8499 68.4958 57.1079C67.0518 57.9827 65.401 58.4642 63.7068 58.5072L67.5979 51.4946C68.1157 50.7114 68.4175 49.7735 68.4175 48.7663C68.4175 47.571 67.9924 46.4731 67.2855 45.6158H72.6718C73.0118 46.606 73.1966 47.6677 73.1966 48.7718C73.1966 50.692 72.6256 52.561 71.5452 54.1769C71.2685 54.5909 71.3797 55.1509 71.7937 55.4277C72.2077 55.7045 72.7678 55.5933 73.0445 55.1792C74.3238 53.2658 75 51.0501 75 48.7719C75 45.6889 73.7994 42.7905 71.6195 40.6104ZM61.7279 58.3565C57.1805 57.5378 53.7195 53.5514 53.7195 48.7719C53.7195 47.0349 54.1766 45.4028 54.9768 43.9893L58.9034 50.7286C59.6652 52.4901 61.42 53.7258 63.458 53.7258C63.7593 53.7258 64.0544 53.6988 64.341 53.647L61.7279 58.3565ZM66.2347 50.2656C66.2 50.3076 66.1686 50.3534 66.1412 50.4029L66.0557 50.557C65.4857 51.3813 64.5339 51.9224 63.4581 51.9224C62.3577 51.9224 61.3871 51.3563 60.8221 50.5001C60.8018 50.4257 60.7715 50.3526 60.7309 50.2828L60.5223 49.9248C60.3802 49.566 60.3021 49.1752 60.3021 48.7664C60.3021 47.0261 61.7179 45.6104 63.4581 45.6104L63.4954 45.6106C63.5275 45.6141 63.5602 45.6159 63.5933 45.6159H63.6453C65.2987 45.7131 66.614 47.089 66.614 48.7664C66.614 49.3086 66.4766 49.8193 66.2347 50.2656ZM63.6927 43.8124C63.6149 43.8088 63.5367 43.8069 63.458 43.8069C61.3431 43.8069 59.5332 45.1376 58.8214 47.0057L56.1224 42.3732C57.909 40.3277 60.5352 39.0333 63.458 39.0333C67.018 39.0333 70.138 40.9534 71.8367 43.8124H63.6927ZM49.8175 63.4161C49.8175 57.4196 44.9565 52.5584 38.9599 52.5584C32.9633 52.5584 28.1022 57.4196 28.1022 63.4161C28.1022 69.4125 32.9633 74.2737 38.9599 74.2737C44.9565 74.2737 49.8175 69.4125 49.8175 63.4161ZM29.1556 63.4161C29.1556 58.0009 33.5452 53.6111 38.9599 53.6111C44.3745 53.6111 48.7642 58.0009 48.7642 63.4161C48.7642 68.8313 44.3745 73.221 38.9599 73.221C33.5452 73.221 29.1556 68.8313 29.1556 63.4161ZM45.9376 58.7774L44.0173 56.8582L38.9693 61.9031L33.9218 56.8582L32.0014 58.7774L37.6148 64.3878V71.0572H40.331V64.3805L45.9376 58.7774Z" fill="#00642C"/>
</svg>
