<svg width="80" height="80" viewBox="0 0 80 80" fill="none" xmlns="http://www.w3.org/2000/svg">
<circle cx="40" cy="40" r="39" stroke="#00642C" stroke-width="2"/>
<path d="M49.3495 18.0057C52.9055 17.9007 56.2655 19.2477 58.7637 21.5547C61.1956 23.8003 62.8104 26.9581 62.9838 30.5737C63.1404 33.7187 62.153 36.6292 60.4993 38.984C60.4363 39.0737 60.3724 39.1626 60.3075 39.251C60.2794 39.2893 60.2511 39.3276 60.2227 39.3657C60.247 39.4061 60.2708 39.4468 60.2942 39.4877C60.346 39.5787 60.3956 39.6714 60.443 39.7656C60.8911 40.657 61.1139 41.6415 61.0365 42.5879C60.968 43.4264 60.66 44.2331 60.0621 44.9058C59.161 45.905 57.9798 46.3043 56.9043 46.3395C56.7404 46.3449 56.5736 46.342 56.4053 46.33C56.3211 46.3239 56.2376 46.3157 56.1549 46.3054C56.1675 46.3908 56.1778 46.4766 56.1857 46.5627C56.2014 46.7325 56.2079 46.903 56.2053 47.0733C56.1883 48.2042 55.7704 49.3305 54.9473 50.1805C54.1012 51.0544 52.9768 51.5002 51.8638 51.5002C51.6903 51.5002 51.5166 51.4894 51.3437 51.4679C51.2538 51.4567 51.1644 51.4426 51.0756 51.4257C51.0911 51.5177 51.1039 51.6102 51.114 51.7031C51.1334 51.8822 51.1427 52.0623 51.1418 52.2422C51.1362 53.3985 50.7112 54.5556 49.8641 55.4304C49.018 56.3043 47.8936 56.7501 46.7806 56.7501C46.7411 56.7501 46.7001 56.7462 46.6579 56.7425L46.5777 56.7356L46.5153 56.7311L45.9634 56.6955L45.7859 57.2355C45.5892 57.8337 45.2778 58.4002 44.8284 58.8805L44.7803 58.931L43.0865 60.6803C42.2404 61.5542 41.116 62 40.0029 62C38.8899 62 37.7655 61.5542 36.9194 60.6803C36.0733 59.8065 35.6483 58.651 35.6483 57.4959C35.6483 57.315 35.6587 57.1341 35.6795 56.9544C35.6903 56.8608 35.704 56.7676 35.7203 56.675C35.6307 56.6921 35.5406 56.7063 35.45 56.7176C35.276 56.7392 35.1011 56.7501 34.9263 56.7501C33.8074 56.7501 32.6826 56.3046 31.8362 55.4304C30.9901 54.5566 30.5651 53.4011 30.5651 52.246C30.5651 52.0651 30.5755 51.8842 30.5963 51.7045C30.6071 51.6109 30.6207 51.5177 30.6371 51.4251C30.5475 51.4422 30.4574 51.4564 30.3668 51.4677C30.1928 51.4893 30.0179 51.5002 29.8431 51.5002C28.7242 51.5002 27.5994 51.0547 26.753 50.1806C25.9069 49.3067 25.4885 48.1509 25.4885 46.9961C25.4885 46.8152 25.4988 46.6343 25.5192 46.4546C25.5299 46.3614 25.5432 46.2685 25.5593 46.1761C25.47 46.193 25.3801 46.207 25.2899 46.2181C25.1161 46.2396 24.9413 46.2503 24.7665 46.2503C23.6417 46.2503 22.5164 45.805 21.6698 44.9307C20.5518 43.776 20.1825 42.1376 20.5349 40.6529L20.5727 40.4974L19.7202 39.3971C17.8919 36.9768 16.859 33.8842 17.0156 30.5729C17.192 26.9582 18.8087 23.8 21.2419 21.5542C23.7409 19.2475 27.1007 17.9007 30.6575 18.0058C33.4377 18.0837 36.7352 18.6971 39.5314 21.1882C39.6448 21.2892 39.7553 21.3915 39.8634 21.4946C39.9104 21.5394 39.9573 21.5846 40.0041 21.6304C40.0505 21.5844 40.097 21.5389 40.1438 21.4941C40.2512 21.3909 40.3614 21.2889 40.4745 21.1882C43.2706 18.6971 46.5683 18.0837 49.3495 18.0057ZM41.6974 53.2433C41.0846 53.2433 40.4703 53.484 39.9889 53.9812L38.2945 55.7311C37.8121 56.2293 37.5758 56.8656 37.5774 57.4993C37.5791 58.1282 37.8151 58.7594 38.2959 59.2552C38.7703 59.7548 39.3767 59.9916 40.0029 59.9916C40.626 59.9916 41.23 59.7577 41.7115 59.2605L43.4058 57.5106C43.8873 57.0133 44.1237 56.3785 44.1237 55.7459C44.1237 55.1133 43.8873 54.4785 43.4058 53.9812C42.9244 53.484 42.3102 53.2433 41.6974 53.2433ZM22.5903 22.9996C20.4914 24.9157 19.1101 27.6105 18.9623 30.6692C18.8122 33.7274 19.8578 36.4868 21.6212 38.6016L23.3633 36.8127C24.2099 35.938 25.329 35.4989 26.4477 35.4989C27.5662 35.4989 28.6851 35.9378 29.5313 36.8117C30.3785 37.6868 30.8033 38.8502 30.809 40.0068C30.8099 40.1864 30.8007 40.3662 30.7814 40.5452C30.7714 40.6377 30.7587 40.7299 30.7434 40.8215C30.832 40.805 30.9211 40.7913 31.0106 40.7804C31.1833 40.7593 31.3572 40.7487 31.531 40.7487C32.6494 40.7487 33.7683 41.1877 34.6145 42.0616C35.4617 42.9367 35.8865 44.1001 35.8922 45.2567C35.8931 45.4363 35.8839 45.6161 35.8646 45.7951C35.8546 45.8876 35.8419 45.9797 35.8266 46.0713C35.9152 46.0549 36.0043 46.0412 36.0938 46.0303C36.2665 46.0092 36.4404 45.9986 36.6142 45.9986C37.7326 45.9986 38.8516 46.4376 39.6977 47.3115C40.545 48.1866 40.9698 49.35 40.9754 50.5065C40.9763 50.6861 40.9671 50.8659 40.9477 51.0449C40.9377 51.1374 40.9251 51.2295 40.9097 51.321C40.9983 51.3046 41.0874 51.291 41.1769 51.2801C41.3496 51.2591 41.5235 51.2485 41.6974 51.2485C42.8159 51.2485 43.9348 51.6875 44.7809 52.5614C45.2404 53.0359 45.5678 53.605 45.7775 54.2024C45.8044 54.2789 45.8295 54.3563 45.8527 54.4346C45.8619 54.4655 45.8707 54.4964 45.8793 54.5274C45.9098 54.5422 45.9407 54.5563 45.9722 54.5695C46.0729 54.6119 46.1757 54.6443 46.281 54.6715C46.4441 54.7137 46.6076 54.7417 46.7806 54.7417C47.4035 54.7417 48.0076 54.5078 48.489 54.0106C48.9721 53.5117 49.2086 52.8744 49.2052 52.2373C49.2019 51.6099 48.9657 50.9772 48.4827 50.4748L43.188 44.7255L44.5911 43.347L49.1308 48.2701C50.0355 49.1978 50.52 49.3758 50.7451 49.4376C50.927 49.4905 51.0824 49.5026 51.4506 49.4961C51.5579 49.4942 51.6914 49.4918 51.8638 49.4918C52.4867 49.4918 53.091 49.2579 53.5723 48.7606C54.0553 48.2618 54.2918 47.6245 54.2884 46.9874C54.2851 46.36 54.0489 45.7274 53.5659 45.2249L48.2712 39.4756L49.6745 38.0969L54.6451 43.4815C54.7352 43.5931 55.5874 44.2349 56.4311 44.3391C57.2821 44.4442 57.9497 44.3041 58.6299 43.5363C59.1143 42.9935 59.3495 42.3594 59.3598 41.7473C59.3692 41.1098 59.1387 40.485 58.651 39.9836L48.9377 29.7127C48.3228 29.0682 47.5313 28.7412 46.7373 28.7284C45.9438 28.7157 45.1447 29.0165 44.5137 29.6417L39.7031 34.4321C38.856 35.303 37.7295 35.7504 36.6142 35.7504C35.5012 35.7504 34.3767 35.3047 33.5307 34.4308C32.6841 33.5565 32.2624 32.4001 32.2645 31.2438C32.2666 30.0902 32.6905 28.9356 33.5394 28.0596L38.5985 23.0037C36.2075 20.6605 33.4593 20.0942 30.5973 20.0147C27.5603 19.9266 24.7094 21.0649 22.5903 22.9996ZM36.6142 47.9934C36.0013 47.9934 35.3871 48.2341 34.9056 48.7313L33.2113 50.4813C32.7289 50.9794 32.4926 51.6157 32.4942 52.2494C32.4959 52.8783 32.7319 53.5095 33.2128 54.0054C33.6871 54.5049 34.2935 54.7417 34.9197 54.7417C35.5427 54.7417 36.1468 54.5078 36.6282 54.0106L38.3226 52.2607C38.8041 51.7634 39.0405 51.1286 39.0405 50.496C39.0405 49.8634 38.8041 49.2286 38.3226 48.7313C37.8412 48.2341 37.227 47.9934 36.6142 47.9934ZM31.531 42.7435C30.9181 42.7435 30.3038 42.9842 29.8224 43.4814L28.1281 45.2314C27.6457 45.7296 27.4094 46.3658 27.411 46.9995C27.4127 47.6284 27.6487 48.2596 28.1296 48.7555C28.6039 49.255 29.2103 49.4918 29.8365 49.4918C30.4595 49.4918 31.0636 49.2579 31.545 48.7607L33.2394 47.0108C33.7209 46.5135 33.9573 45.8787 33.9573 45.2461C33.9573 44.6134 33.7208 43.9786 33.2394 43.4814C32.758 42.9842 32.1438 42.7435 31.531 42.7435ZM26.4477 37.4937C25.8349 37.4937 25.2206 37.7344 24.7392 38.2316L23.0448 39.9815C22.5625 40.4797 22.3261 41.1159 22.3278 41.7496C22.3295 42.3785 22.5655 43.0097 23.0463 43.5056C23.5206 44.0051 24.127 44.2419 24.7533 44.2419C25.3763 44.2419 25.9804 44.008 26.4618 43.5108L28.1562 41.7608C28.6376 41.2636 28.874 40.6288 28.874 39.9962C28.874 39.3636 28.6376 38.7287 28.1562 38.2315C27.6748 37.7343 27.0606 37.4937 26.4477 37.4937ZM49.4078 20.0147C46.4612 20.0948 43.6335 20.6824 41.1846 23.2088L34.9102 29.477C34.4248 29.9758 34.187 30.614 34.1887 31.2498C34.1904 31.8787 34.4264 32.51 34.9072 33.0059C35.3815 33.5052 35.9879 33.7421 36.6142 33.7421C37.2313 33.7421 37.8315 33.5138 38.3282 33.0119L43.1713 28.2013C44.1684 27.2042 45.4726 26.7192 46.7696 26.7387C48.0665 26.7582 49.3575 27.2822 50.328 28.3085L59.0416 37.5147C60.2805 35.5267 61.1671 33.2538 61.0437 30.6696C60.8958 27.6104 59.5145 24.9157 57.4156 22.9995C55.2965 21.0649 52.4456 19.9266 49.4078 20.0147Z" fill="#00642C"/>
</svg>
