<svg width="8" height="15" viewBox="0 0 8 15" fill="none" xmlns="http://www.w3.org/2000/svg">
<path d="M6.62068 7.66326L0.167324 14.0368C-0.0557746 14.2571 -0.0557747 14.6144 0.167324 14.8348C0.39049 15.0551 0.752209 15.0551 0.975341 14.8348L7.8327 8.06227C8.05577 7.8419 8.05577 7.48463 7.8327 7.26425L0.975343 0.491753C0.748327 0.275218 0.386573 0.281436 0.167325 0.505642C-0.0465323 0.72436 -0.0465324 1.07109 0.167325 1.28977L6.62068 7.66326Z" fill="#00642C"/>
</svg>
